Final Project - Predicting March Madness
…
For further cleaning, the non-March Madness teams added in the join were removed and simple variable names and values were cleaned up to be easier to work with. First we joined our original cbb dataset with background, both of which we got from Bart Torvik’s analytics website. The latter dataset contained details about each team’s performance in the tournament for the relevant years. The observations of teams that did not make the Round of 64 for their tournament were then removed to focus on further prediction.

We also abbreviated each of the outcomes in the march_madness variable. Then, we joined the cbb and the sportsreference datasets by team and year to aggregate all of the statistics and data that were interested in analyzing. For the round each team made it to, the values were shortened to a shorter form (i.e. F4 instead of Final Four). Each round was split up to its own variable and dataset which showed the success of each team in each round (e.g. win or loss in the Round of 32). Finally, we created the mm_WINS variable which tracks how many wins a given team had in a tournament year. We deduced this from the outcome from the march_madness variable, and applied it to our new variable. This helped us with our EDA as we were able to see how many wins each conference/team had in any given tournament.

Exploratory Data Analysis

MAYBE ADD ONE MORE EDA

cbb |>
  mutate(mm_WINS = case_when(march_madness == "R64" ~ 0, march_madness =="R32" ~ 1, 
                             march_madness == "E16" ~ 2, march_madness == "E8" ~ 3,
                             march_madness == "F4" ~ 4, march_madness == "2ND" ~ 5,
                             march_madness == "Champions" ~ 6, TRUE ~ 0))

# A tibble: 896 × 38
      RK TEAM      G.x  WINS LOSSES ADJOE ADJDE `EFG%` `EFGD%`   TOR  TORD   ORB
   <dbl> <chr>   <dbl> <dbl>  <dbl> <dbl> <dbl>  <dbl>   <dbl> <dbl> <dbl> <dbl>
 1   265 Pacific    28     9     19  97   106.    46.5    51.1  18.8  20.4  29.5
 2   291 North …    29     9     20  93.3 104.    47.4    49.9  21.6  22.2  29.3
 3   131 Drexel     19    12      7 106.  104.    54.3    49.6  19.6  16.4  29.4
 4   142 Iona       17    12      5 101.   98.8   51.2    45.6  22.5  19.6  33.5
 5   194 Cal Po…    32    12     20 103.  105     46      49.3  14.7  18.1  30.9
 6   229 James …    32    12     20 100.  106.    49.2    49.3  19.4  20.3  29.1
 7    56 George…    25    13     12 107.   93.7   49.6    48    21.7  16.2  32.4
 8    71 Villan…    32    13     19 109.   98.1   46.5    47.5  20.4  17.2  37.6
 9   156 Oral R…    23    13     10 108.  107.    53.6    50.4  15.7  18.2  23.2
10   235 Northw…    29    13     16  95.5 101.    47.2    47.7  20.5  22.7  31.9
# … with 886 more rows, and 26 more variables: DRB <dbl>, FTR <dbl>,
#   FTRD <dbl>, `2P%` <dbl>, `2P%D` <dbl>, `3P%` <dbl>, `3P%D` <dbl>,
#   `3PR` <dbl>, `3PRD` <dbl>, `ADJ T` <dbl>, YEAR <dbl>, march_madness <chr>,
#   Conference <chr>, G.y <dbl>, `Overall W-L%` <dbl>, `Overall SRS` <dbl>,
#   `Overall SOS` <dbl>, `Conf. W-L%` <dbl>, `Home W-L%` <dbl>,
#   `Away W-L%` <dbl>, `AVG PPG` <dbl>, `AVG DPPG` <dbl>, `AVG PD` <dbl>,
#   `AST/TOV` <dbl>, `PF/G` <dbl>, mm_WINS <dbl>
…
ℹ Use `spec()` to retrieve the full column specification for this data.
ℹ Specify the column types or set `show_col_types = FALSE` to quiet this message.

`2023stats` <- `2023stats` |>
  filter(`2023stats`$TEAM %in% `2023teams`$TEAM)

tibble(predict(round_64_model, `2023stats`)) |>
  mutate(rank = seq(1:64)) |>
  left_join(mutate(`2023stats`, rank = seq(1:64))) |>
  arrange(desc(predict(round_64_model, `2023stats`)))

Joining, by = "rank"

# A tibble: 64 × 36
   predi…¹  rank    RK TEAM    G.x  WINS LOSSES ADJOE ADJDE `EFG%` `EFGD%`   TOR
     <dbl> <int> <dbl> <chr> <dbl> <dbl>  <dbl> <dbl> <dbl>  <dbl>   <dbl> <dbl>
 1    3.59     1     1 Hous…    34    31      3  117.  88     52.7    42.5  15.3
 2    3.41     3     3 UCLA     34    29      5  113.  87.4   50.9    46.8  15.3
 3    2.50    12    12 San …    32    26      6  111.  90.1   50.1    47.5  17.6
 4    2.48     2     2 Alab…    34    29      5  115.  88.3   52.7    41.5  19  
 5    2.24     6     6 Purd…    34    29      5  118.  92.6   52.2    47.2  17  
 6    2.23    11    11 Marq…    34    28      6  119.  96.1   56      51.1  15.2
 7    2.08    13    13 Kans…    34    27      7  113.  91.5   52.4    47.1  17.5
 8    1.96     9     9 Texas    34    26      8  115.  91.6   52.7    47.8  16.5
 9    1.89     4     4 Tenn…    33    23     10  111.  86.2   50.3    42.4  18.1
10    1.74     5     5 Conn…    33    25      8  119.  92.5   53.5    45.5  18.9
# … with 54 more rows, 24 more variables: TORD <dbl>, ORB <dbl>, DRB <dbl>,
#   FTR <dbl>, FTRD <dbl>, `2P%` <dbl>, `2P%D` <dbl>, `3P%` <dbl>,
#   `3P%D` <dbl>, `3PR` <dbl>, `3PRD` <dbl>, `ADJ T` <dbl>, G.y <dbl>,
#   `Overall W-L%` <dbl>, `Overall SRS` <dbl>, `Overall SOS` <dbl>,
#   `Conf. W-L%` <dbl>, `Home W-L%` <dbl>, `Away W-L%` <dbl>, `AVG PPG` <dbl>,
#   `AVG DPPG` <dbl>, `AVG PD` <dbl>, `AST/TOV` <dbl>, `PF/G` <dbl>, and
#   abbreviated variable name ¹​`predict(round_64_model, \`2023stats\`)`

tibble(predict(round_32_model, `2023stats`)) |>
  mutate(rank = seq(1:64)) |>
  left_join(mutate(`2023stats`, rank = seq(1:64))) |>
  arrange(desc(predict(round_32_model, `2023stats`)))

Joining, by = "rank"

# A tibble: 64 × 36
   predi…¹  rank    RK TEAM    G.x  WINS LOSSES ADJOE ADJDE `EFG%` `EFGD%`   TOR
     <dbl> <int> <dbl> <chr> <dbl> <dbl>  <dbl> <dbl> <dbl>  <dbl>   <dbl> <dbl>
 1   2.18      1     1 Hous…    34    31      3  117.  88     52.7    42.5  15.3
 2   1.50      3     3 UCLA     34    29      5  113.  87.4   50.9    46.8  15.3
 3   1.27      2     2 Alab…    34    29      5  115.  88.3   52.7    41.5  19  
 4   1.03     10    10 Gonz…    32    27      5  123.  98.6   58.5    51.7  14.6
 5   1.00     12    12 San …    32    26      6  111.  90.1   50.1    47.5  17.6
 6   0.910     6     6 Purd…    34    29      5  118.  92.6   52.2    47.2  17  
 7   0.880    38    42 Penn…    35    22     13  115.  99.9   55.5    49.2  13.7
 8   0.853    15    15 Bayl…    32    22     10  121.  99.5   53.1    51.4  18.1
 9   0.848     4     4 Tenn…    33    23     10  111.  86.2   50.3    42.4  18.1
10   0.779    14    14 Crei…    33    21     12  114.  92.8   54.3    47.3  16.6
# … with 54 more rows, 24 more variables: TORD <dbl>, ORB <dbl>, DRB <dbl>,
#   FTR <dbl>, FTRD <dbl>, `2P%` <dbl>, `2P%D` <dbl>, `3P%` <dbl>,
#   `3P%D` <dbl>, `3PR` <dbl>, `3PRD` <dbl>, `ADJ T` <dbl>, G.y <dbl>,
#   `Overall W-L%` <dbl>, `Overall SRS` <dbl>, `Overall SOS` <dbl>,
#   `Conf. W-L%` <dbl>, `Home W-L%` <dbl>, `Away W-L%` <dbl>, `AVG PPG` <dbl>,
#   `AVG DPPG` <dbl>, `AVG PD` <dbl>, `AST/TOV` <dbl>, `PF/G` <dbl>, and
#   abbreviated variable name ¹​`predict(round_32_model, \`2023stats\`)`

tibble(predict(sweet_sixteen_model, `2023stats`)) |>
  mutate(rank = seq(1:64)) |>
  left_join(mutate(`2023stats`, rank = seq(1:64))) |>
  arrange(desc(predict(sweet_sixteen_model, `2023stats`)))

Joining, by = "rank"

# A tibble: 64 × 36
   predi…¹  rank    RK TEAM    G.x  WINS LOSSES ADJOE ADJDE `EFG%` `EFGD%`   TOR
     <dbl> <int> <dbl> <chr> <dbl> <dbl>  <dbl> <dbl> <dbl>  <dbl>   <dbl> <dbl>
 1   2.03      1     1 Hous…    34    31      3  117.  88     52.7    42.5  15.3
 2   2.01      6     6 Purd…    34    29      5  118.  92.6   52.2    47.2  17  
 3   1.09     22    22 Texa…    34    25      9  113.  94.8   49      47.9  18.3
 4   1.03      5     5 Conn…    33    25      8  119.  92.5   53.5    45.5  18.9
 5   0.961    38    42 Penn…    35    22     13  115.  99.9   55.5    49.2  13.7
 6   0.674    23    23 Aubu…    32    20     12  111.  93.2   49.6    45.6  18.1
 7   0.624    13    13 Kans…    34    27      7  113.  91.5   52.4    47.1  17.5
 8   0.532     2     2 Alab…    34    29      5  115.  88.3   52.7    41.5  19  
 9   0.467    26    26 TCU      33    21     12  110.  93.4   50.2    47.8  17.1
10   0.449    12    12 San …    32    26      6  111.  90.1   50.1    47.5  17.6
# … with 54 more rows, 24 more variables: TORD <dbl>, ORB <dbl>, DRB <dbl>,
#   FTR <dbl>, FTRD <dbl>, `2P%` <dbl>, `2P%D` <dbl>, `3P%` <dbl>,
#   `3P%D` <dbl>, `3PR` <dbl>, `3PRD` <dbl>, `ADJ T` <dbl>, G.y <dbl>,
#   `Overall W-L%` <dbl>, `Overall SRS` <dbl>, `Overall SOS` <dbl>,
#   `Conf. W-L%` <dbl>, `Home W-L%` <dbl>, `Away W-L%` <dbl>, `AVG PPG` <dbl>,
#   `AVG DPPG` <dbl>, `AVG PD` <dbl>, `AST/TOV` <dbl>, `PF/G` <dbl>, and
#   abbreviated variable name ¹​`predict(sweet_sixteen_model, \`2023stats\`)`

tibble(predict(mmb_ord_model, `2023stats`)) |>
  mutate(rank = seq(1:64)) |>
  left_join(mutate(`2023stats`, rank = seq(1:64))) |>
  arrange(predict(mmb_ord_model, `2023stats`, type = "probs"))

Joining, by = "rank"

# A tibble: 64 × 36
   predi…¹  rank    RK TEAM    G.x  WINS LOSSES ADJOE ADJDE `EFG%` `EFGD%`   TOR
   <fct>   <int> <dbl> <chr> <dbl> <dbl>  <dbl> <dbl> <dbl>  <dbl>   <dbl> <dbl>
 1 E8          1     1 Hous…    34    31      3  117.  88     52.7    42.5  15.3
 2 S16         3     3 UCLA     34    29      5  113.  87.4   50.9    46.8  15.3
 3 S16         5     5 Conn…    33    25      8  119.  92.5   53.5    45.5  18.9
 4 S16         4     4 Tenn…    33    23     10  111.  86.2   50.3    42.4  18.1
 5 R32         6     6 Purd…    34    29      5  118.  92.6   52.2    47.2  17  
 6 R32         2     2 Alab…    34    29      5  115.  88.3   52.7    41.5  19  
 7 R32         9     9 Texas    34    26      8  115.  91.6   52.7    47.8  16.5
 8 R32        11    11 Marq…    34    28      6  119.  96.1   56      51.1  15.2
 9 R32        10    10 Gonz…    32    27      5  123.  98.6   58.5    51.7  14.6
10 R32         8     8 Sain…    32    25      7  112.  89.1   52.5    46.7  16.4
# … with 54 more rows, 24 more variables: TORD <dbl>, ORB <dbl>, DRB <dbl>,
#   FTR <dbl>, FTRD <dbl>, `2P%` <dbl>, `2P%D` <dbl>, `3P%` <dbl>,
#   `3P%D` <dbl>, `3PR` <dbl>, `3PRD` <dbl>, `ADJ T` <dbl>, G.y <dbl>,
#   `Overall W-L%` <dbl>, `Overall SRS` <dbl>, `Overall SOS` <dbl>,
#   `Conf. W-L%` <dbl>, `Home W-L%` <dbl>, `Away W-L%` <dbl>, `AVG PPG` <dbl>,
#   `AVG DPPG` <dbl>, `AVG PD` <dbl>, `AST/TOV` <dbl>, `PF/G` <dbl>, and
#   abbreviated variable name ¹​`predict(mmb_ord_model, \`2023stats\`)`
…
